%!PS-Adobe-2.0 EPSF-2.0
%%Title: DEM1.eps
%%Creator: gnuplot 5.2 patchlevel 2
%%CreationDate: Sun May 19 13:52:02 2019
%%DocumentFonts: (atend)
%%BoundingBox: 50 50 410 302
%%EndComments
%%BeginProlog
/gnudict 256 dict def
gnudict begin
%
% The following true/false flags may be edited by hand if desired.
% The unit line width and grayscale image gamma correction may also be changed.
%
/Color true def
/Blacktext false def
/Solid false def
/Dashlength 1 def
/Landscape false def
/Level1 false def
/Level3 false def
/Rounded false def
/ClipToBoundingBox false def
/SuppressPDFMark false def
/TransparentPatterns false def
/gnulinewidth 5.000 def
/userlinewidth gnulinewidth def
/Gamma 1.0 def
/BackgroundColor {-1.000 -1.000 -1.000} def
%
/vshift -46 def
/dl1 {
  10.0 Dashlength userlinewidth gnulinewidth div mul mul mul
  Rounded { currentlinewidth 0.75 mul sub dup 0 le { pop 0.01 } if } if
} def
/dl2 {
  10.0 Dashlength userlinewidth gnulinewidth div mul mul mul
  Rounded { currentlinewidth 0.75 mul add } if
} def
/hpt_ 31.5 def
/vpt_ 31.5 def
/hpt hpt_ def
/vpt vpt_ def
/doclip {
  ClipToBoundingBox {
    newpath 50 50 moveto 410 50 lineto 410 302 lineto 50 302 lineto closepath
    clip
  } if
} def
%
% Gnuplot Prolog Version 5.1 (Oct 2015)
%
%/SuppressPDFMark true def
%
/M {moveto} bind def
/L {lineto} bind def
/R {rmoveto} bind def
/V {rlineto} bind def
/N {newpath moveto} bind def
/Z {closepath} bind def
/C {setrgbcolor} bind def
/f {rlineto fill} bind def
/g {setgray} bind def
/Gshow {show} def   % May be redefined later in the file to support UTF-8
/vpt2 vpt 2 mul def
/hpt2 hpt 2 mul def
/Lshow {currentpoint stroke M 0 vshift R 
	Blacktext {gsave 0 setgray textshow grestore} {textshow} ifelse} def
/Rshow {currentpoint stroke M dup stringwidth pop neg vshift R
	Blacktext {gsave 0 setgray textshow grestore} {textshow} ifelse} def
/Cshow {currentpoint stroke M dup stringwidth pop -2 div vshift R 
	Blacktext {gsave 0 setgray textshow grestore} {textshow} ifelse} def
/UP {dup vpt_ mul /vpt exch def hpt_ mul /hpt exch def
  /hpt2 hpt 2 mul def /vpt2 vpt 2 mul def} def
/DL {Color {setrgbcolor Solid {pop []} if 0 setdash}
 {pop pop pop 0 setgray Solid {pop []} if 0 setdash} ifelse} def
/BL {stroke userlinewidth 2 mul setlinewidth
	Rounded {1 setlinejoin 1 setlinecap} if} def
/AL {stroke userlinewidth 2 div setlinewidth
	Rounded {1 setlinejoin 1 setlinecap} if} def
/UL {dup gnulinewidth mul /userlinewidth exch def
	dup 1 lt {pop 1} if 10 mul /udl exch def} def
/PL {stroke userlinewidth setlinewidth
	Rounded {1 setlinejoin 1 setlinecap} if} def
3.8 setmiterlimit
% Classic Line colors (version 5.0)
/LCw {1 1 1} def
/LCb {0 0 0} def
/LCa {0 0 0} def
/LC0 {1 0 0} def
/LC1 {0 1 0} def
/LC2 {0 0 1} def
/LC3 {1 0 1} def
/LC4 {0 1 1} def
/LC5 {1 1 0} def
/LC6 {0 0 0} def
/LC7 {1 0.3 0} def
/LC8 {0.5 0.5 0.5} def
% Default dash patterns (version 5.0)
/LTB {BL [] LCb DL} def
/LTw {PL [] 1 setgray} def
/LTb {PL [] LCb DL} def
/LTa {AL [1 udl mul 2 udl mul] 0 setdash LCa setrgbcolor} def
/LT0 {PL [] LC0 DL} def
/LT1 {PL [2 dl1 3 dl2] LC1 DL} def
/LT2 {PL [1 dl1 1.5 dl2] LC2 DL} def
/LT3 {PL [6 dl1 2 dl2 1 dl1 2 dl2] LC3 DL} def
/LT4 {PL [1 dl1 2 dl2 6 dl1 2 dl2 1 dl1 2 dl2] LC4 DL} def
/LT5 {PL [4 dl1 2 dl2] LC5 DL} def
/LT6 {PL [1.5 dl1 1.5 dl2 1.5 dl1 1.5 dl2 1.5 dl1 6 dl2] LC6 DL} def
/LT7 {PL [3 dl1 3 dl2 1 dl1 3 dl2] LC7 DL} def
/LT8 {PL [2 dl1 2 dl2 2 dl1 6 dl2] LC8 DL} def
/SL {[] 0 setdash} def
/Pnt {stroke [] 0 setdash gsave 1 setlinecap M 0 0 V stroke grestore} def
/Dia {stroke [] 0 setdash 2 copy vpt add M
  hpt neg vpt neg V hpt vpt neg V
  hpt vpt V hpt neg vpt V closepath stroke
  Pnt} def
/Pls {stroke [] 0 setdash vpt sub M 0 vpt2 V
  currentpoint stroke M
  hpt neg vpt neg R hpt2 0 V stroke
 } def
/Box {stroke [] 0 setdash 2 copy exch hpt sub exch vpt add M
  0 vpt2 neg V hpt2 0 V 0 vpt2 V
  hpt2 neg 0 V closepath stroke
  Pnt} def
/Crs {stroke [] 0 setdash exch hpt sub exch vpt add M
  hpt2 vpt2 neg V currentpoint stroke M
  hpt2 neg 0 R hpt2 vpt2 V stroke} def
/TriU {stroke [] 0 setdash 2 copy vpt 1.12 mul add M
  hpt neg vpt -1.62 mul V
  hpt 2 mul 0 V
  hpt neg vpt 1.62 mul V closepath stroke
  Pnt} def
/Star {2 copy Pls Crs} def
/BoxF {stroke [] 0 setdash exch hpt sub exch vpt add M
  0 vpt2 neg V hpt2 0 V 0 vpt2 V
  hpt2 neg 0 V closepath fill} def
/TriUF {stroke [] 0 setdash vpt 1.12 mul add M
  hpt neg vpt -1.62 mul V
  hpt 2 mul 0 V
  hpt neg vpt 1.62 mul V closepath fill} def
/TriD {stroke [] 0 setdash 2 copy vpt 1.12 mul sub M
  hpt neg vpt 1.62 mul V
  hpt 2 mul 0 V
  hpt neg vpt -1.62 mul V closepath stroke
  Pnt} def
/TriDF {stroke [] 0 setdash vpt 1.12 mul sub M
  hpt neg vpt 1.62 mul V
  hpt 2 mul 0 V
  hpt neg vpt -1.62 mul V closepath fill} def
/DiaF {stroke [] 0 setdash vpt add M
  hpt neg vpt neg V hpt vpt neg V
  hpt vpt V hpt neg vpt V closepath fill} def
/Pent {stroke [] 0 setdash 2 copy gsave
  translate 0 hpt M 4 {72 rotate 0 hpt L} repeat
  closepath stroke grestore Pnt} def
/PentF {stroke [] 0 setdash gsave
  translate 0 hpt M 4 {72 rotate 0 hpt L} repeat
  closepath fill grestore} def
/Circle {stroke [] 0 setdash 2 copy
  hpt 0 360 arc stroke Pnt} def
/CircleF {stroke [] 0 setdash hpt 0 360 arc fill} def
/C0 {BL [] 0 setdash 2 copy moveto vpt 90 450 arc} bind def
/C1 {BL [] 0 setdash 2 copy moveto
	2 copy vpt 0 90 arc closepath fill
	vpt 0 360 arc closepath} bind def
/C2 {BL [] 0 setdash 2 copy moveto
	2 copy vpt 90 180 arc closepath fill
	vpt 0 360 arc closepath} bind def
/C3 {BL [] 0 setdash 2 copy moveto
	2 copy vpt 0 180 arc closepath fill
	vpt 0 360 arc closepath} bind def
/C4 {BL [] 0 setdash 2 copy moveto
	2 copy vpt 180 270 arc closepath fill
	vpt 0 360 arc closepath} bind def
/C5 {BL [] 0 setdash 2 copy moveto
	2 copy vpt 0 90 arc
	2 copy moveto
	2 copy vpt 180 270 arc closepath fill
	vpt 0 360 arc} bind def
/C6 {BL [] 0 setdash 2 copy moveto
	2 copy vpt 90 270 arc closepath fill
	vpt 0 360 arc closepath} bind def
/C7 {BL [] 0 setdash 2 copy moveto
	2 copy vpt 0 270 arc closepath fill
	vpt 0 360 arc closepath} bind def
/C8 {BL [] 0 setdash 2 copy moveto
	2 copy vpt 270 360 arc closepath fill
	vpt 0 360 arc closepath} bind def
/C9 {BL [] 0 setdash 2 copy moveto
	2 copy vpt 270 450 arc closepath fill
	vpt 0 360 arc closepath} bind def
/C10 {BL [] 0 setdash 2 copy 2 copy moveto vpt 270 360 arc closepath fill
	2 copy moveto
	2 copy vpt 90 180 arc closepath fill
	vpt 0 360 arc closepath} bind def
/C11 {BL [] 0 setdash 2 copy moveto
	2 copy vpt 0 180 arc closepath fill
	2 copy moveto
	2 copy vpt 270 360 arc closepath fill
	vpt 0 360 arc closepath} bind def
/C12 {BL [] 0 setdash 2 copy moveto
	2 copy vpt 180 360 arc closepath fill
	vpt 0 360 arc closepath} bind def
/C13 {BL [] 0 setdash 2 copy moveto
	2 copy vpt 0 90 arc closepath fill
	2 copy moveto
	2 copy vpt 180 360 arc closepath fill
	vpt 0 360 arc closepath} bind def
/C14 {BL [] 0 setdash 2 copy moveto
	2 copy vpt 90 360 arc closepath fill
	vpt 0 360 arc} bind def
/C15 {BL [] 0 setdash 2 copy vpt 0 360 arc closepath fill
	vpt 0 360 arc closepath} bind def
/Rec {newpath 4 2 roll moveto 1 index 0 rlineto 0 exch rlineto
	neg 0 rlineto closepath} bind def
/Square {dup Rec} bind def
/Bsquare {vpt sub exch vpt sub exch vpt2 Square} bind def
/S0 {BL [] 0 setdash 2 copy moveto 0 vpt rlineto BL Bsquare} bind def
/S1 {BL [] 0 setdash 2 copy vpt Square fill Bsquare} bind def
/S2 {BL [] 0 setdash 2 copy exch vpt sub exch vpt Square fill Bsquare} bind def
/S3 {BL [] 0 setdash 2 copy exch vpt sub exch vpt2 vpt Rec fill Bsquare} bind def
/S4 {BL [] 0 setdash 2 copy exch vpt sub exch vpt sub vpt Square fill Bsquare} bind def
/S5 {BL [] 0 setdash 2 copy 2 copy vpt Square fill
	exch vpt sub exch vpt sub vpt Square fill Bsquare} bind def
/S6 {BL [] 0 setdash 2 copy exch vpt sub exch vpt sub vpt vpt2 Rec fill Bsquare} bind def
/S7 {BL [] 0 setdash 2 copy exch vpt sub exch vpt sub vpt vpt2 Rec fill
	2 copy vpt Square fill Bsquare} bind def
/S8 {BL [] 0 setdash 2 copy vpt sub vpt Square fill Bsquare} bind def
/S9 {BL [] 0 setdash 2 copy vpt sub vpt vpt2 Rec fill Bsquare} bind def
/S10 {BL [] 0 setdash 2 copy vpt sub vpt Square fill 2 copy exch vpt sub exch vpt Square fill
	Bsquare} bind def
/S11 {BL [] 0 setdash 2 copy vpt sub vpt Square fill 2 copy exch vpt sub exch vpt2 vpt Rec fill
	Bsquare} bind def
/S12 {BL [] 0 setdash 2 copy exch vpt sub exch vpt sub vpt2 vpt Rec fill Bsquare} bind def
/S13 {BL [] 0 setdash 2 copy exch vpt sub exch vpt sub vpt2 vpt Rec fill
	2 copy vpt Square fill Bsquare} bind def
/S14 {BL [] 0 setdash 2 copy exch vpt sub exch vpt sub vpt2 vpt Rec fill
	2 copy exch vpt sub exch vpt Square fill Bsquare} bind def
/S15 {BL [] 0 setdash 2 copy Bsquare fill Bsquare} bind def
/D0 {gsave translate 45 rotate 0 0 S0 stroke grestore} bind def
/D1 {gsave translate 45 rotate 0 0 S1 stroke grestore} bind def
/D2 {gsave translate 45 rotate 0 0 S2 stroke grestore} bind def
/D3 {gsave translate 45 rotate 0 0 S3 stroke grestore} bind def
/D4 {gsave translate 45 rotate 0 0 S4 stroke grestore} bind def
/D5 {gsave translate 45 rotate 0 0 S5 stroke grestore} bind def
/D6 {gsave translate 45 rotate 0 0 S6 stroke grestore} bind def
/D7 {gsave translate 45 rotate 0 0 S7 stroke grestore} bind def
/D8 {gsave translate 45 rotate 0 0 S8 stroke grestore} bind def
/D9 {gsave translate 45 rotate 0 0 S9 stroke grestore} bind def
/D10 {gsave translate 45 rotate 0 0 S10 stroke grestore} bind def
/D11 {gsave translate 45 rotate 0 0 S11 stroke grestore} bind def
/D12 {gsave translate 45 rotate 0 0 S12 stroke grestore} bind def
/D13 {gsave translate 45 rotate 0 0 S13 stroke grestore} bind def
/D14 {gsave translate 45 rotate 0 0 S14 stroke grestore} bind def
/D15 {gsave translate 45 rotate 0 0 S15 stroke grestore} bind def
/DiaE {stroke [] 0 setdash vpt add M
  hpt neg vpt neg V hpt vpt neg V
  hpt vpt V hpt neg vpt V closepath stroke} def
/BoxE {stroke [] 0 setdash exch hpt sub exch vpt add M
  0 vpt2 neg V hpt2 0 V 0 vpt2 V
  hpt2 neg 0 V closepath stroke} def
/TriUE {stroke [] 0 setdash vpt 1.12 mul add M
  hpt neg vpt -1.62 mul V
  hpt 2 mul 0 V
  hpt neg vpt 1.62 mul V closepath stroke} def
/TriDE {stroke [] 0 setdash vpt 1.12 mul sub M
  hpt neg vpt 1.62 mul V
  hpt 2 mul 0 V
  hpt neg vpt -1.62 mul V closepath stroke} def
/PentE {stroke [] 0 setdash gsave
  translate 0 hpt M 4 {72 rotate 0 hpt L} repeat
  closepath stroke grestore} def
/CircE {stroke [] 0 setdash 
  hpt 0 360 arc stroke} def
/Opaque {gsave closepath 1 setgray fill grestore 0 setgray closepath} def
/DiaW {stroke [] 0 setdash vpt add M
  hpt neg vpt neg V hpt vpt neg V
  hpt vpt V hpt neg vpt V Opaque stroke} def
/BoxW {stroke [] 0 setdash exch hpt sub exch vpt add M
  0 vpt2 neg V hpt2 0 V 0 vpt2 V
  hpt2 neg 0 V Opaque stroke} def
/TriUW {stroke [] 0 setdash vpt 1.12 mul add M
  hpt neg vpt -1.62 mul V
  hpt 2 mul 0 V
  hpt neg vpt 1.62 mul V Opaque stroke} def
/TriDW {stroke [] 0 setdash vpt 1.12 mul sub M
  hpt neg vpt 1.62 mul V
  hpt 2 mul 0 V
  hpt neg vpt -1.62 mul V Opaque stroke} def
/PentW {stroke [] 0 setdash gsave
  translate 0 hpt M 4 {72 rotate 0 hpt L} repeat
  Opaque stroke grestore} def
/CircW {stroke [] 0 setdash 
  hpt 0 360 arc Opaque stroke} def
/BoxFill {gsave Rec 1 setgray fill grestore} def
/Density {
  /Fillden exch def
  currentrgbcolor
  /ColB exch def /ColG exch def /ColR exch def
  /ColR ColR Fillden mul Fillden sub 1 add def
  /ColG ColG Fillden mul Fillden sub 1 add def
  /ColB ColB Fillden mul Fillden sub 1 add def
  ColR ColG ColB setrgbcolor} def
/BoxColFill {gsave Rec PolyFill} def
/PolyFill {gsave Density fill grestore grestore} def
/h {rlineto rlineto rlineto gsave closepath fill grestore} bind def
%
% PostScript Level 1 Pattern Fill routine for rectangles
% Usage: x y w h s a XX PatternFill
%	x,y = lower left corner of box to be filled
%	w,h = width and height of box
%	  a = angle in degrees between lines and x-axis
%	 XX = 0/1 for no/yes cross-hatch
%
/PatternFill {gsave /PFa [ 9 2 roll ] def
  PFa 0 get PFa 2 get 2 div add PFa 1 get PFa 3 get 2 div add translate
  PFa 2 get -2 div PFa 3 get -2 div PFa 2 get PFa 3 get Rec
  TransparentPatterns {} {gsave 1 setgray fill grestore} ifelse
  clip
  currentlinewidth 0.5 mul setlinewidth
  /PFs PFa 2 get dup mul PFa 3 get dup mul add sqrt def
  0 0 M PFa 5 get rotate PFs -2 div dup translate
  0 1 PFs PFa 4 get div 1 add floor cvi
	{PFa 4 get mul 0 M 0 PFs V} for
  0 PFa 6 get ne {
	0 1 PFs PFa 4 get div 1 add floor cvi
	{PFa 4 get mul 0 2 1 roll M PFs 0 V} for
 } if
  stroke grestore} def
%
/languagelevel where
 {pop languagelevel} {1} ifelse
dup 2 lt
	{/InterpretLevel1 true def
	 /InterpretLevel3 false def}
	{/InterpretLevel1 Level1 def
	 2 gt
	    {/InterpretLevel3 Level3 def}
	    {/InterpretLevel3 false def}
	 ifelse }
 ifelse
%
% PostScript level 2 pattern fill definitions
%
/Level2PatternFill {
/Tile8x8 {/PaintType 2 /PatternType 1 /TilingType 1 /BBox [0 0 8 8] /XStep 8 /YStep 8}
	bind def
/KeepColor {currentrgbcolor [/Pattern /DeviceRGB] setcolorspace} bind def
<< Tile8x8
 /PaintProc {0.5 setlinewidth pop 0 0 M 8 8 L 0 8 M 8 0 L stroke} 
>> matrix makepattern
/Pat1 exch def
<< Tile8x8
 /PaintProc {0.5 setlinewidth pop 0 0 M 8 8 L 0 8 M 8 0 L stroke
	0 4 M 4 8 L 8 4 L 4 0 L 0 4 L stroke}
>> matrix makepattern
/Pat2 exch def
<< Tile8x8
 /PaintProc {0.5 setlinewidth pop 0 0 M 0 8 L
	8 8 L 8 0 L 0 0 L fill}
>> matrix makepattern
/Pat3 exch def
<< Tile8x8
 /PaintProc {0.5 setlinewidth pop -4 8 M 8 -4 L
	0 12 M 12 0 L stroke}
>> matrix makepattern
/Pat4 exch def
<< Tile8x8
 /PaintProc {0.5 setlinewidth pop -4 0 M 8 12 L
	0 -4 M 12 8 L stroke}
>> matrix makepattern
/Pat5 exch def
<< Tile8x8
 /PaintProc {0.5 setlinewidth pop -2 8 M 4 -4 L
	0 12 M 8 -4 L 4 12 M 10 0 L stroke}
>> matrix makepattern
/Pat6 exch def
<< Tile8x8
 /PaintProc {0.5 setlinewidth pop -2 0 M 4 12 L
	0 -4 M 8 12 L 4 -4 M 10 8 L stroke}
>> matrix makepattern
/Pat7 exch def
<< Tile8x8
 /PaintProc {0.5 setlinewidth pop 8 -2 M -4 4 L
	12 0 M -4 8 L 12 4 M 0 10 L stroke}
>> matrix makepattern
/Pat8 exch def
<< Tile8x8
 /PaintProc {0.5 setlinewidth pop 0 -2 M 12 4 L
	-4 0 M 12 8 L -4 4 M 8 10 L stroke}
>> matrix makepattern
/Pat9 exch def
/Pattern1 {PatternBgnd KeepColor Pat1 setpattern} bind def
/Pattern2 {PatternBgnd KeepColor Pat2 setpattern} bind def
/Pattern3 {PatternBgnd KeepColor Pat3 setpattern} bind def
/Pattern4 {PatternBgnd KeepColor Landscape {Pat5} {Pat4} ifelse setpattern} bind def
/Pattern5 {PatternBgnd KeepColor Landscape {Pat4} {Pat5} ifelse setpattern} bind def
/Pattern6 {PatternBgnd KeepColor Landscape {Pat9} {Pat6} ifelse setpattern} bind def
/Pattern7 {PatternBgnd KeepColor Landscape {Pat8} {Pat7} ifelse setpattern} bind def
} def
%
%
%End of PostScript Level 2 code
%
/PatternBgnd {
  TransparentPatterns {} {gsave 1 setgray fill grestore} ifelse
} def
%
% Substitute for Level 2 pattern fill codes with
% grayscale if Level 2 support is not selected.
%
/Level1PatternFill {
/Pattern1 {0.250 Density} bind def
/Pattern2 {0.500 Density} bind def
/Pattern3 {0.750 Density} bind def
/Pattern4 {0.125 Density} bind def
/Pattern5 {0.375 Density} bind def
/Pattern6 {0.625 Density} bind def
/Pattern7 {0.875 Density} bind def
} def
%
% Now test for support of Level 2 code
%
Level1 {Level1PatternFill} {Level2PatternFill} ifelse
%
/Symbol-Oblique /Symbol findfont [1 0 .167 1 0 0] makefont
dup length dict begin {1 index /FID eq {pop pop} {def} ifelse} forall
currentdict end definefont pop
%
/Metrics {ExtendTextBox Gswidth} def
/Lwidth {currentpoint stroke M 0 vshift R Metrics} def
/Rwidth {currentpoint stroke M dup stringwidth pop neg vshift R Metrics} def
/Cwidth {currentpoint stroke M dup stringwidth pop -2 div vshift R Metrics} def
/GLwidth {currentpoint stroke M 0 vshift R {ExtendTextBox} forall} def
/GRwidth {currentpoint stroke M dup Gwidth vshift R {ExtendTextBox} forall} def
/GCwidth {currentpoint stroke M dup Gwidth 2 div vshift R {ExtendTextBox} forall} def
/GLwidth2 {0 Gwidth AddGlyphWidth} def
/GRwidth2 {Gwidth -1 mul 0 AddGlyphWidth} def
/GCwidth2 {Gwidth 2 div dup -1 mul AddGlyphWidth} def
/AddGlyphWidth { dup TBx2 gt {userdict /TBx2 3 -1 roll put} {pop} ifelse
                 dup TBx1 lt {userdict /TBx1 3 -1 roll put} {pop} ifelse } def
/MFshow {
   { dup 5 get 3 ge
     { 5 get 3 eq {gsave} {grestore} ifelse }
     {dup dup 0 get findfont exch 1 get scalefont setfont
     [ currentpoint ] exch dup 2 get 0 exch R dup 5 get 2 ne {dup dup 6
     get exch 4 get {textshow} {Metrics pop 0 R} ifelse }if dup 5 get 0 eq
     {dup 3 get {2 get neg 0 exch R pop} {pop aload pop M} ifelse} {dup 5
     get 1 eq {dup 2 get exch dup 3 get exch 6 get Gswidth pop -2 div
     dup 0 R} {dup 6 get Gswidth pop -2 div 0 R 6 get
     textshow 2 index {aload pop M neg 3 -1 roll neg R pop pop} {pop pop pop
     pop aload pop M} ifelse }ifelse }ifelse }
     ifelse }
   forall} def
/Gswidth {dup type /stringtype eq {stringwidth} {pop (n) stringwidth} ifelse} def
/MFwidth {0 exch { dup 5 get 3 ge { 5 get 3 eq { 0 } { pop } ifelse }
 {dup 3 get{dup dup 0 get findfont exch 1 get scalefont setfont
     6 get Gswidth pop add} {pop} ifelse} ifelse} forall} def
/MLshow { currentpoint stroke M
  0 exch R
  Blacktext {gsave 0 setgray MFshow grestore} {MFshow} ifelse } bind def
/MRshow { currentpoint stroke M
  exch dup MFwidth neg 3 -1 roll R
  Blacktext {gsave 0 setgray MFshow grestore} {MFshow} ifelse } bind def
/MCshow { currentpoint stroke M
  exch dup MFwidth -2 div 3 -1 roll R
  Blacktext {gsave 0 setgray MFshow grestore} {MFshow} ifelse } bind def
/XYsave    { [( ) 1 2 true false 3 ()] } bind def
/XYrestore { [( ) 1 2 true false 4 ()] } bind def
Level1 SuppressPDFMark or 
{} {
/SDict 10 dict def
systemdict /pdfmark known not {
  userdict /pdfmark systemdict /cleartomark get put
} if
SDict begin [
  /Title (DEM1.eps)
  /Subject (gnuplot plot)
  /Creator (gnuplot 5.2 patchlevel 2)
%  /Producer (gnuplot)
%  /Keywords ()
  /CreationDate (Sun May 19 13:52:02 2019)
  /DOCINFO pdfmark
end
} ifelse
%
% Support for boxed text - Ethan A Merritt Sep 2016
%
/InitTextBox { userdict /TBy2 3 -1 roll put userdict /TBx2 3 -1 roll put
           userdict /TBy1 3 -1 roll put userdict /TBx1 3 -1 roll put
	   /Boxing true def } def
/ExtendTextBox { dup type /stringtype eq
    { Boxing { gsave dup false charpath pathbbox
      dup TBy2 gt {userdict /TBy2 3 -1 roll put} {pop} ifelse
      dup TBx2 gt {userdict /TBx2 3 -1 roll put} {pop} ifelse
      dup TBy1 lt {userdict /TBy1 3 -1 roll put} {pop} ifelse
      dup TBx1 lt {userdict /TBx1 3 -1 roll put} {pop} ifelse
      grestore } if }
    {} ifelse} def
/PopTextBox { newpath TBx1 TBxmargin sub TBy1 TBymargin sub M
               TBx1 TBxmargin sub TBy2 TBymargin add L
	       TBx2 TBxmargin add TBy2 TBymargin add L
	       TBx2 TBxmargin add TBy1 TBymargin sub L closepath } def
/DrawTextBox { PopTextBox stroke /Boxing false def} def
/FillTextBox { gsave PopTextBox fill grestore /Boxing false def} def
0 0 0 0 InitTextBox
/TBxmargin 20 def
/TBymargin 20 def
/Boxing false def
/textshow { ExtendTextBox Gshow } def
%
end
%%EndProlog
%%Page: 1 1
gnudict begin
gsave
doclip
50 50 translate
0.050 0.050 scale
0 setgray
newpath
(Helvetica) findfont 140 scalefont setfont
BackgroundColor 0 lt 3 1 roll 0 lt exch 0 lt or or not {BackgroundColor C 1.000 0 0 7200.00 5040.00 BoxColFill} if
/Helvetica findfont 140 scalefont setfont
/vshift -46 def
/Helvetica findfont 140 scalefont setfont
1.000 UL
LTb
LCb setrgbcolor
546 280 M
63 0 V
6338 0 R
-63 0 V
stroke
462 280 M
[ [(Helvetica) 140.0 0.0 true true 0 (-350)]
] -46.7 MRshow
1.000 UL
LTb
LCb setrgbcolor
546 822 M
63 0 V
6338 0 R
-63 0 V
stroke
462 822 M
[ [(Helvetica) 140.0 0.0 true true 0 (-300)]
] -46.7 MRshow
1.000 UL
LTb
LCb setrgbcolor
546 1365 M
63 0 V
6338 0 R
-63 0 V
stroke
462 1365 M
[ [(Helvetica) 140.0 0.0 true true 0 (-250)]
] -46.7 MRshow
1.000 UL
LTb
LCb setrgbcolor
546 1907 M
63 0 V
6338 0 R
-63 0 V
stroke
462 1907 M
[ [(Helvetica) 140.0 0.0 true true 0 (-200)]
] -46.7 MRshow
1.000 UL
LTb
LCb setrgbcolor
546 2450 M
63 0 V
6338 0 R
-63 0 V
stroke
462 2450 M
[ [(Helvetica) 140.0 0.0 true true 0 (-150)]
] -46.7 MRshow
1.000 UL
LTb
LCb setrgbcolor
546 2992 M
63 0 V
6338 0 R
-63 0 V
stroke
462 2992 M
[ [(Helvetica) 140.0 0.0 true true 0 (-100)]
] -46.7 MRshow
1.000 UL
LTb
LCb setrgbcolor
546 3534 M
63 0 V
6338 0 R
-63 0 V
stroke
462 3534 M
[ [(Helvetica) 140.0 0.0 true true 0 (-50)]
] -46.7 MRshow
1.000 UL
LTb
LCb setrgbcolor
546 4077 M
63 0 V
6338 0 R
-63 0 V
stroke
462 4077 M
[ [(Helvetica) 140.0 0.0 true true 0 ( 0)]
] -46.7 MRshow
1.000 UL
LTb
LCb setrgbcolor
546 4619 M
63 0 V
6338 0 R
-63 0 V
stroke
462 4619 M
[ [(Helvetica) 140.0 0.0 true true 0 ( 50)]
] -46.7 MRshow
1.000 UL
LTb
LCb setrgbcolor
546 280 M
0 63 V
0 4276 R
0 -63 V
stroke
546 140 M
[ [(Helvetica) 140.0 0.0 true true 0 ( 0)]
] -46.7 MCshow
1.000 UL
LTb
LCb setrgbcolor
1613 280 M
0 63 V
0 4276 R
0 -63 V
stroke
1613 140 M
[ [(Helvetica) 140.0 0.0 true true 0 ( 0.05)]
] -46.7 MCshow
1.000 UL
LTb
LCb setrgbcolor
2680 280 M
0 63 V
0 4276 R
0 -63 V
stroke
2680 140 M
[ [(Helvetica) 140.0 0.0 true true 0 ( 0.1)]
] -46.7 MCshow
1.000 UL
LTb
LCb setrgbcolor
3747 280 M
0 63 V
0 4276 R
0 -63 V
stroke
3747 140 M
[ [(Helvetica) 140.0 0.0 true true 0 ( 0.15)]
] -46.7 MCshow
1.000 UL
LTb
LCb setrgbcolor
4813 280 M
0 63 V
0 4276 R
0 -63 V
stroke
4813 140 M
[ [(Helvetica) 140.0 0.0 true true 0 ( 0.2)]
] -46.7 MCshow
1.000 UL
LTb
LCb setrgbcolor
5880 280 M
0 63 V
0 4276 R
0 -63 V
stroke
5880 140 M
[ [(Helvetica) 140.0 0.0 true true 0 ( 0.25)]
] -46.7 MCshow
1.000 UL
LTb
LCb setrgbcolor
6947 280 M
0 63 V
0 4276 R
0 -63 V
stroke
6947 140 M
[ [(Helvetica) 140.0 0.0 true true 0 ( 0.3)]
] -46.7 MCshow
1.000 UL
LTb
LCb setrgbcolor
1.000 UL
LTB
LCb setrgbcolor
546 4619 N
546 280 L
6401 0 V
0 4339 V
-6401 0 V
Z stroke
1.000 UP
1.000 UL
LTb
LCb setrgbcolor
LCb setrgbcolor
3746 4829 M
[ [(Helvetica) 140.0 0.0 true true 0 (Direct Euler Method)]
] -46.7 MCshow
% Begin plot #1
1.000 UP
1.000 UL
LTb
1.00 0.00 0.00 C /Helvetica findfont 140 scalefont setfont
LCb setrgbcolor
6296 4486 M
('AnaliticData.dat' u 1:2) Rshow
1.000 UP
1.000 UL
LTb
1.00 0.00 0.00 C 546 4077 Pls
567 4077 Pls
589 4077 Pls
610 4077 Pls
631 4077 Pls
653 4078 Pls
674 4078 Pls
695 4078 Pls
717 4078 Pls
738 4078 Pls
759 4079 Pls
781 4079 Pls
802 4079 Pls
823 4079 Pls
845 4079 Pls
866 4079 Pls
887 4080 Pls
909 4080 Pls
930 4080 Pls
951 4080 Pls
973 4080 Pls
994 4080 Pls
1015 4080 Pls
1037 4081 Pls
1058 4081 Pls
1079 4081 Pls
1101 4081 Pls
1122 4081 Pls
1143 4081 Pls
1165 4081 Pls
1186 4082 Pls
1207 4082 Pls
1229 4082 Pls
1250 4082 Pls
1271 4082 Pls
1293 4082 Pls
1314 4082 Pls
1335 4082 Pls
1357 4082 Pls
1378 4082 Pls
1399 4083 Pls
1421 4083 Pls
1442 4083 Pls
1463 4083 Pls
1485 4083 Pls
1506 4083 Pls
1527 4083 Pls
1549 4083 Pls
1570 4083 Pls
1591 4083 Pls
1613 4083 Pls
1634 4084 Pls
1656 4084 Pls
1677 4084 Pls
1698 4084 Pls
1720 4084 Pls
1741 4084 Pls
1762 4084 Pls
1784 4084 Pls
1805 4084 Pls
1826 4084 Pls
1848 4084 Pls
1869 4084 Pls
1890 4084 Pls
1912 4084 Pls
1933 4085 Pls
1954 4085 Pls
1976 4085 Pls
1997 4085 Pls
2018 4085 Pls
2040 4085 Pls
2061 4085 Pls
2082 4085 Pls
2104 4085 Pls
2125 4085 Pls
2146 4085 Pls
2168 4085 Pls
2189 4085 Pls
2210 4085 Pls
2232 4085 Pls
2253 4085 Pls
2274 4085 Pls
2296 4085 Pls
2317 4085 Pls
2338 4085 Pls
2360 4085 Pls
2381 4086 Pls
2402 4086 Pls
2424 4086 Pls
2445 4086 Pls
2466 4086 Pls
2488 4086 Pls
2509 4086 Pls
2530 4086 Pls
2552 4086 Pls
2573 4086 Pls
2594 4086 Pls
2616 4086 Pls
2637 4086 Pls
2658 4086 Pls
2680 4086 Pls
2701 4086 Pls
2722 4086 Pls
2744 4086 Pls
2765 4086 Pls
2786 4086 Pls
2808 4086 Pls
2829 4086 Pls
2850 4086 Pls
2872 4086 Pls
2893 4086 Pls
2914 4086 Pls
2936 4086 Pls
2957 4086 Pls
2978 4086 Pls
3000 4086 Pls
3021 4086 Pls
3042 4086 Pls
3064 4086 Pls
3085 4086 Pls
3106 4086 Pls
3128 4087 Pls
3149 4087 Pls
3170 4087 Pls
3192 4087 Pls
3213 4087 Pls
3234 4087 Pls
3256 4087 Pls
3277 4087 Pls
3298 4087 Pls
3320 4087 Pls
3341 4087 Pls
3362 4087 Pls
3384 4087 Pls
3405 4087 Pls
3426 4087 Pls
3448 4087 Pls
3469 4087 Pls
3490 4087 Pls
3512 4087 Pls
3533 4087 Pls
3554 4087 Pls
3576 4087 Pls
3597 4087 Pls
3618 4087 Pls
3640 4087 Pls
3661 4087 Pls
3682 4087 Pls
3704 4087 Pls
3725 4087 Pls
3746 4087 Pls
3768 4087 Pls
3789 4087 Pls
3811 4087 Pls
3832 4087 Pls
3853 4087 Pls
3875 4087 Pls
3896 4087 Pls
3917 4087 Pls
3939 4087 Pls
3960 4087 Pls
3981 4087 Pls
4003 4087 Pls
4024 4087 Pls
4045 4087 Pls
4067 4087 Pls
4088 4087 Pls
4109 4087 Pls
4131 4087 Pls
4152 4087 Pls
4173 4087 Pls
4195 4087 Pls
4216 4087 Pls
4237 4087 Pls
4259 4087 Pls
4280 4087 Pls
4301 4087 Pls
4323 4087 Pls
4344 4087 Pls
4365 4087 Pls
4387 4087 Pls
4408 4087 Pls
4429 4087 Pls
4451 4087 Pls
4472 4087 Pls
4493 4087 Pls
4515 4087 Pls
4536 4087 Pls
4557 4087 Pls
4579 4087 Pls
4600 4087 Pls
4621 4087 Pls
4643 4087 Pls
4664 4087 Pls
4685 4087 Pls
4707 4087 Pls
4728 4087 Pls
4749 4087 Pls
4771 4087 Pls
4792 4087 Pls
4813 4087 Pls
4835 4087 Pls
4856 4087 Pls
4877 4087 Pls
4899 4087 Pls
4920 4087 Pls
4941 4087 Pls
4963 4087 Pls
4984 4087 Pls
5005 4087 Pls
5027 4087 Pls
5048 4087 Pls
5069 4087 Pls
5091 4087 Pls
5112 4087 Pls
5133 4087 Pls
5155 4087 Pls
5176 4087 Pls
5197 4087 Pls
5219 4087 Pls
5240 4087 Pls
5261 4087 Pls
5283 4087 Pls
5304 4087 Pls
5325 4087 Pls
5347 4087 Pls
5368 4087 Pls
5389 4087 Pls
5411 4087 Pls
5432 4087 Pls
5453 4087 Pls
5475 4087 Pls
5496 4087 Pls
5517 4087 Pls
5539 4087 Pls
5560 4087 Pls
5581 4087 Pls
5603 4087 Pls
5624 4087 Pls
5645 4087 Pls
5667 4087 Pls
5688 4087 Pls
5709 4087 Pls
5731 4087 Pls
5752 4087 Pls
5773 4087 Pls
5795 4087 Pls
5816 4087 Pls
5837 4087 Pls
5859 4087 Pls
5880 4087 Pls
5902 4087 Pls
5923 4087 Pls
5944 4087 Pls
5966 4087 Pls
5987 4087 Pls
6008 4087 Pls
6030 4087 Pls
6051 4087 Pls
6072 4087 Pls
6094 4087 Pls
6115 4087 Pls
6136 4087 Pls
6158 4087 Pls
6179 4087 Pls
6200 4087 Pls
6222 4087 Pls
6243 4087 Pls
6264 4087 Pls
6286 4087 Pls
6307 4087 Pls
6328 4087 Pls
6350 4087 Pls
6371 4087 Pls
6392 4087 Pls
6414 4087 Pls
6435 4087 Pls
6456 4087 Pls
6478 4087 Pls
6499 4087 Pls
6520 4087 Pls
6542 4087 Pls
6563 4087 Pls
6584 4087 Pls
6606 4087 Pls
6627 4087 Pls
6648 4087 Pls
6670 4087 Pls
6691 4087 Pls
6712 4087 Pls
6734 4087 Pls
6755 4087 Pls
6776 4087 Pls
6798 4087 Pls
6819 4087 Pls
6840 4087 Pls
6862 4087 Pls
6883 4087 Pls
6904 4087 Pls
6926 4087 Pls
6579 4486 Pls
% End plot #1
% Begin plot #2
1.000 UP
1.000 UL
LTb
0.00 1.00 0.00 C /Helvetica findfont 140 scalefont setfont
LCb setrgbcolor
6296 4346 M
('DEM.dat') Rshow
1.000 UP
1.000 UL
LTb
0.00 1.00 0.00 C 546 4076 CircleF
567 4076 CircleF
589 4076 CircleF
610 4076 CircleF
631 4075 CircleF
653 4075 CircleF
674 4075 CircleF
695 4075 CircleF
717 4075 CircleF
738 4074 CircleF
759 4074 CircleF
781 4074 CircleF
802 4073 CircleF
823 4073 CircleF
845 4073 CircleF
866 4073 CircleF
887 4072 CircleF
909 4072 CircleF
930 4072 CircleF
951 4071 CircleF
973 4071 CircleF
994 4071 CircleF
1015 4070 CircleF
1037 4070 CircleF
1058 4070 CircleF
1079 4069 CircleF
1101 4069 CircleF
1122 4069 CircleF
1143 4068 CircleF
1165 4068 CircleF
1186 4067 CircleF
1207 4067 CircleF
1229 4067 CircleF
1250 4066 CircleF
1271 4066 CircleF
1293 4065 CircleF
1314 4065 CircleF
1335 4064 CircleF
1357 4064 CircleF
1378 4064 CircleF
1399 4063 CircleF
1421 4063 CircleF
1442 4062 CircleF
1463 4062 CircleF
1485 4061 CircleF
1506 4061 CircleF
1527 4060 CircleF
1549 4059 CircleF
1570 4059 CircleF
1591 4058 CircleF
1613 4058 CircleF
1634 4057 CircleF
1656 4057 CircleF
1677 4056 CircleF
1698 4055 CircleF
1720 4055 CircleF
1741 4054 CircleF
1762 4053 CircleF
1784 4053 CircleF
1805 4052 CircleF
1826 4051 CircleF
1848 4050 CircleF
1869 4050 CircleF
1890 4049 CircleF
1912 4048 CircleF
1933 4047 CircleF
1954 4047 CircleF
1976 4046 CircleF
1997 4045 CircleF
2018 4044 CircleF
2040 4043 CircleF
2061 4042 CircleF
2082 4041 CircleF
2104 4041 CircleF
2125 4040 CircleF
2146 4039 CircleF
2168 4038 CircleF
2189 4037 CircleF
2210 4036 CircleF
2232 4035 CircleF
2253 4034 CircleF
2274 4033 CircleF
2296 4031 CircleF
2317 4030 CircleF
2338 4029 CircleF
2360 4028 CircleF
2381 4027 CircleF
2402 4026 CircleF
2424 4024 CircleF
2445 4023 CircleF
2466 4022 CircleF
2488 4021 CircleF
2509 4019 CircleF
2530 4018 CircleF
2552 4016 CircleF
2573 4015 CircleF
2594 4014 CircleF
2616 4012 CircleF
2637 4011 CircleF
2658 4009 CircleF
2680 4008 CircleF
2701 4006 CircleF
2722 4004 CircleF
2744 4003 CircleF
2765 4001 CircleF
2786 3999 CircleF
2808 3998 CircleF
2829 3996 CircleF
2850 3994 CircleF
2872 3992 CircleF
2893 3990 CircleF
2914 3988 CircleF
2936 3986 CircleF
2957 3984 CircleF
2978 3982 CircleF
3000 3980 CircleF
3021 3978 CircleF
3042 3976 CircleF
3064 3974 CircleF
3085 3971 CircleF
3106 3969 CircleF
3128 3967 CircleF
3149 3964 CircleF
3170 3962 CircleF
3192 3959 CircleF
3213 3957 CircleF
3234 3954 CircleF
3256 3952 CircleF
3277 3949 CircleF
3298 3946 CircleF
3320 3943 CircleF
3341 3940 CircleF
3362 3938 CircleF
3384 3935 CircleF
3405 3932 CircleF
3426 3928 CircleF
3448 3925 CircleF
3469 3922 CircleF
3490 3919 CircleF
3512 3915 CircleF
3533 3912 CircleF
3554 3909 CircleF
3576 3905 CircleF
3597 3901 CircleF
3618 3898 CircleF
3640 3894 CircleF
3661 3890 CircleF
3682 3886 CircleF
3704 3882 CircleF
3725 3878 CircleF
3746 3874 CircleF
3768 3870 CircleF
3789 3866 CircleF
3811 3861 CircleF
3832 3857 CircleF
3853 3852 CircleF
3875 3847 CircleF
3896 3843 CircleF
3917 3838 CircleF
3939 3833 CircleF
3960 3828 CircleF
3981 3823 CircleF
4003 3818 CircleF
4024 3812 CircleF
4045 3807 CircleF
4067 3801 CircleF
4088 3796 CircleF
4109 3790 CircleF
4131 3784 CircleF
4152 3778 CircleF
4173 3772 CircleF
4195 3766 CircleF
4216 3759 CircleF
4237 3753 CircleF
4259 3746 CircleF
4280 3740 CircleF
4301 3733 CircleF
4323 3726 CircleF
4344 3719 CircleF
4365 3711 CircleF
4387 3704 CircleF
4408 3696 CircleF
4429 3689 CircleF
4451 3681 CircleF
4472 3673 CircleF
4493 3665 CircleF
4515 3656 CircleF
4536 3648 CircleF
4557 3639 CircleF
4579 3630 CircleF
4600 3622 CircleF
4621 3612 CircleF
4643 3603 CircleF
4664 3593 CircleF
4685 3584 CircleF
4707 3574 CircleF
4728 3564 CircleF
4749 3554 CircleF
4771 3543 CircleF
4792 3532 CircleF
4813 3522 CircleF
4835 3510 CircleF
4856 3499 CircleF
4877 3488 CircleF
4899 3476 CircleF
4920 3464 CircleF
4941 3452 CircleF
4963 3439 CircleF
4984 3426 CircleF
5005 3413 CircleF
5027 3400 CircleF
5048 3387 CircleF
5069 3373 CircleF
5091 3359 CircleF
5112 3345 CircleF
5133 3330 CircleF
5155 3316 CircleF
5176 3300 CircleF
5197 3285 CircleF
5219 3269 CircleF
5240 3253 CircleF
5261 3237 CircleF
5283 3221 CircleF
5304 3204 CircleF
5325 3186 CircleF
5347 3169 CircleF
5368 3151 CircleF
5389 3133 CircleF
5411 3114 CircleF
5432 3095 CircleF
5453 3076 CircleF
5475 3056 CircleF
5496 3036 CircleF
5517 3015 CircleF
5539 2994 CircleF
5560 2973 CircleF
5581 2951 CircleF
5603 2929 CircleF
5624 2907 CircleF
5645 2884 CircleF
5667 2860 CircleF
5688 2836 CircleF
5709 2812 CircleF
5731 2787 CircleF
5752 2762 CircleF
5773 2736 CircleF
5795 2710 CircleF
5816 2683 CircleF
5837 2656 CircleF
5859 2628 CircleF
5880 2600 CircleF
5902 2571 CircleF
5923 2542 CircleF
5944 2512 CircleF
5966 2481 CircleF
5987 2450 CircleF
6008 2418 CircleF
6030 2386 CircleF
6051 2353 CircleF
6072 2319 CircleF
6094 2285 CircleF
6115 2250 CircleF
6136 2215 CircleF
6158 2178 CircleF
6179 2141 CircleF
6200 2104 CircleF
6222 2065 CircleF
6243 2026 CircleF
6264 1986 CircleF
6286 1946 CircleF
6307 1904 CircleF
6328 1862 CircleF
6350 1819 CircleF
6371 1776 CircleF
6392 1731 CircleF
6414 1685 CircleF
6435 1639 CircleF
6456 1592 CircleF
6478 1544 CircleF
6499 1495 CircleF
6520 1445 CircleF
6542 1394 CircleF
6563 1342 CircleF
6584 1289 CircleF
6606 1235 CircleF
6627 1180 CircleF
6648 1124 CircleF
6670 1067 CircleF
6691 1009 CircleF
6712 950 CircleF
6734 890 CircleF
6755 828 CircleF
6776 766 CircleF
6798 702 CircleF
6819 637 CircleF
6840 571 CircleF
6862 503 CircleF
6883 434 CircleF
6904 364 CircleF
6926 293 CircleF
6579 4346 CircleF
% End plot #2
2.000 UL
LTb
LCb setrgbcolor
1.000 UL
LTB
LCb setrgbcolor
546 4619 N
546 280 L
6401 0 V
0 4339 V
-6401 0 V
Z stroke
1.000 UP
1.000 UL
LTb
LCb setrgbcolor
stroke
grestore
end
showpage
%%Trailer
%%DocumentFonts: Helvetica
