%!PS-Adobe-2.0 EPSF-2.0
%%Title: ITM.eps
%%Creator: gnuplot 5.2 patchlevel 2
%%CreationDate: Sat May 18 19:42:02 2019
%%DocumentFonts: (atend)
%%BoundingBox: 50 50 410 302
%%EndComments
%%BeginProlog
/gnudict 256 dict def
gnudict begin
%
% The following true/false flags may be edited by hand if desired.
% The unit line width and grayscale image gamma correction may also be changed.
%
/Color true def
/Blacktext false def
/Solid false def
/Dashlength 1 def
/Landscape false def
/Level1 false def
/Level3 false def
/Rounded false def
/ClipToBoundingBox false def
/SuppressPDFMark false def
/TransparentPatterns false def
/gnulinewidth 5.000 def
/userlinewidth gnulinewidth def
/Gamma 1.0 def
/BackgroundColor {-1.000 -1.000 -1.000} def
%
/vshift -46 def
/dl1 {
  10.0 Dashlength userlinewidth gnulinewidth div mul mul mul
  Rounded { currentlinewidth 0.75 mul sub dup 0 le { pop 0.01 } if } if
} def
/dl2 {
  10.0 Dashlength userlinewidth gnulinewidth div mul mul mul
  Rounded { currentlinewidth 0.75 mul add } if
} def
/hpt_ 31.5 def
/vpt_ 31.5 def
/hpt hpt_ def
/vpt vpt_ def
/doclip {
  ClipToBoundingBox {
    newpath 50 50 moveto 410 50 lineto 410 302 lineto 50 302 lineto closepath
    clip
  } if
} def
%
% Gnuplot Prolog Version 5.1 (Oct 2015)
%
%/SuppressPDFMark true def
%
/M {moveto} bind def
/L {lineto} bind def
/R {rmoveto} bind def
/V {rlineto} bind def
/N {newpath moveto} bind def
/Z {closepath} bind def
/C {setrgbcolor} bind def
/f {rlineto fill} bind def
/g {setgray} bind def
/Gshow {show} def   % May be redefined later in the file to support UTF-8
/vpt2 vpt 2 mul def
/hpt2 hpt 2 mul def
/Lshow {currentpoint stroke M 0 vshift R 
	Blacktext {gsave 0 setgray textshow grestore} {textshow} ifelse} def
/Rshow {currentpoint stroke M dup stringwidth pop neg vshift R
	Blacktext {gsave 0 setgray textshow grestore} {textshow} ifelse} def
/Cshow {currentpoint stroke M dup stringwidth pop -2 div vshift R 
	Blacktext {gsave 0 setgray textshow grestore} {textshow} ifelse} def
/UP {dup vpt_ mul /vpt exch def hpt_ mul /hpt exch def
  /hpt2 hpt 2 mul def /vpt2 vpt 2 mul def} def
/DL {Color {setrgbcolor Solid {pop []} if 0 setdash}
 {pop pop pop 0 setgray Solid {pop []} if 0 setdash} ifelse} def
/BL {stroke userlinewidth 2 mul setlinewidth
	Rounded {1 setlinejoin 1 setlinecap} if} def
/AL {stroke userlinewidth 2 div setlinewidth
	Rounded {1 setlinejoin 1 setlinecap} if} def
/UL {dup gnulinewidth mul /userlinewidth exch def
	dup 1 lt {pop 1} if 10 mul /udl exch def} def
/PL {stroke userlinewidth setlinewidth
	Rounded {1 setlinejoin 1 setlinecap} if} def
3.8 setmiterlimit
% Classic Line colors (version 5.0)
/LCw {1 1 1} def
/LCb {0 0 0} def
/LCa {0 0 0} def
/LC0 {1 0 0} def
/LC1 {0 1 0} def
/LC2 {0 0 1} def
/LC3 {1 0 1} def
/LC4 {0 1 1} def
/LC5 {1 1 0} def
/LC6 {0 0 0} def
/LC7 {1 0.3 0} def
/LC8 {0.5 0.5 0.5} def
% Default dash patterns (version 5.0)
/LTB {BL [] LCb DL} def
/LTw {PL [] 1 setgray} def
/LTb {PL [] LCb DL} def
/LTa {AL [1 udl mul 2 udl mul] 0 setdash LCa setrgbcolor} def
/LT0 {PL [] LC0 DL} def
/LT1 {PL [2 dl1 3 dl2] LC1 DL} def
/LT2 {PL [1 dl1 1.5 dl2] LC2 DL} def
/LT3 {PL [6 dl1 2 dl2 1 dl1 2 dl2] LC3 DL} def
/LT4 {PL [1 dl1 2 dl2 6 dl1 2 dl2 1 dl1 2 dl2] LC4 DL} def
/LT5 {PL [4 dl1 2 dl2] LC5 DL} def
/LT6 {PL [1.5 dl1 1.5 dl2 1.5 dl1 1.5 dl2 1.5 dl1 6 dl2] LC6 DL} def
/LT7 {PL [3 dl1 3 dl2 1 dl1 3 dl2] LC7 DL} def
/LT8 {PL [2 dl1 2 dl2 2 dl1 6 dl2] LC8 DL} def
/SL {[] 0 setdash} def
/Pnt {stroke [] 0 setdash gsave 1 setlinecap M 0 0 V stroke grestore} def
/Dia {stroke [] 0 setdash 2 copy vpt add M
  hpt neg vpt neg V hpt vpt neg V
  hpt vpt V hpt neg vpt V closepath stroke
  Pnt} def
/Pls {stroke [] 0 setdash vpt sub M 0 vpt2 V
  currentpoint stroke M
  hpt neg vpt neg R hpt2 0 V stroke
 } def
/Box {stroke [] 0 setdash 2 copy exch hpt sub exch vpt add M
  0 vpt2 neg V hpt2 0 V 0 vpt2 V
  hpt2 neg 0 V closepath stroke
  Pnt} def
/Crs {stroke [] 0 setdash exch hpt sub exch vpt add M
  hpt2 vpt2 neg V currentpoint stroke M
  hpt2 neg 0 R hpt2 vpt2 V stroke} def
/TriU {stroke [] 0 setdash 2 copy vpt 1.12 mul add M
  hpt neg vpt -1.62 mul V
  hpt 2 mul 0 V
  hpt neg vpt 1.62 mul V closepath stroke
  Pnt} def
/Star {2 copy Pls Crs} def
/BoxF {stroke [] 0 setdash exch hpt sub exch vpt add M
  0 vpt2 neg V hpt2 0 V 0 vpt2 V
  hpt2 neg 0 V closepath fill} def
/TriUF {stroke [] 0 setdash vpt 1.12 mul add M
  hpt neg vpt -1.62 mul V
  hpt 2 mul 0 V
  hpt neg vpt 1.62 mul V closepath fill} def
/TriD {stroke [] 0 setdash 2 copy vpt 1.12 mul sub M
  hpt neg vpt 1.62 mul V
  hpt 2 mul 0 V
  hpt neg vpt -1.62 mul V closepath stroke
  Pnt} def
/TriDF {stroke [] 0 setdash vpt 1.12 mul sub M
  hpt neg vpt 1.62 mul V
  hpt 2 mul 0 V
  hpt neg vpt -1.62 mul V closepath fill} def
/DiaF {stroke [] 0 setdash vpt add M
  hpt neg vpt neg V hpt vpt neg V
  hpt vpt V hpt neg vpt V closepath fill} def
/Pent {stroke [] 0 setdash 2 copy gsave
  translate 0 hpt M 4 {72 rotate 0 hpt L} repeat
  closepath stroke grestore Pnt} def
/PentF {stroke [] 0 setdash gsave
  translate 0 hpt M 4 {72 rotate 0 hpt L} repeat
  closepath fill grestore} def
/Circle {stroke [] 0 setdash 2 copy
  hpt 0 360 arc stroke Pnt} def
/CircleF {stroke [] 0 setdash hpt 0 360 arc fill} def
/C0 {BL [] 0 setdash 2 copy moveto vpt 90 450 arc} bind def
/C1 {BL [] 0 setdash 2 copy moveto
	2 copy vpt 0 90 arc closepath fill
	vpt 0 360 arc closepath} bind def
/C2 {BL [] 0 setdash 2 copy moveto
	2 copy vpt 90 180 arc closepath fill
	vpt 0 360 arc closepath} bind def
/C3 {BL [] 0 setdash 2 copy moveto
	2 copy vpt 0 180 arc closepath fill
	vpt 0 360 arc closepath} bind def
/C4 {BL [] 0 setdash 2 copy moveto
	2 copy vpt 180 270 arc closepath fill
	vpt 0 360 arc closepath} bind def
/C5 {BL [] 0 setdash 2 copy moveto
	2 copy vpt 0 90 arc
	2 copy moveto
	2 copy vpt 180 270 arc closepath fill
	vpt 0 360 arc} bind def
/C6 {BL [] 0 setdash 2 copy moveto
	2 copy vpt 90 270 arc closepath fill
	vpt 0 360 arc closepath} bind def
/C7 {BL [] 0 setdash 2 copy moveto
	2 copy vpt 0 270 arc closepath fill
	vpt 0 360 arc closepath} bind def
/C8 {BL [] 0 setdash 2 copy moveto
	2 copy vpt 270 360 arc closepath fill
	vpt 0 360 arc closepath} bind def
/C9 {BL [] 0 setdash 2 copy moveto
	2 copy vpt 270 450 arc closepath fill
	vpt 0 360 arc closepath} bind def
/C10 {BL [] 0 setdash 2 copy 2 copy moveto vpt 270 360 arc closepath fill
	2 copy moveto
	2 copy vpt 90 180 arc closepath fill
	vpt 0 360 arc closepath} bind def
/C11 {BL [] 0 setdash 2 copy moveto
	2 copy vpt 0 180 arc closepath fill
	2 copy moveto
	2 copy vpt 270 360 arc closepath fill
	vpt 0 360 arc closepath} bind def
/C12 {BL [] 0 setdash 2 copy moveto
	2 copy vpt 180 360 arc closepath fill
	vpt 0 360 arc closepath} bind def
/C13 {BL [] 0 setdash 2 copy moveto
	2 copy vpt 0 90 arc closepath fill
	2 copy moveto
	2 copy vpt 180 360 arc closepath fill
	vpt 0 360 arc closepath} bind def
/C14 {BL [] 0 setdash 2 copy moveto
	2 copy vpt 90 360 arc closepath fill
	vpt 0 360 arc} bind def
/C15 {BL [] 0 setdash 2 copy vpt 0 360 arc closepath fill
	vpt 0 360 arc closepath} bind def
/Rec {newpath 4 2 roll moveto 1 index 0 rlineto 0 exch rlineto
	neg 0 rlineto closepath} bind def
/Square {dup Rec} bind def
/Bsquare {vpt sub exch vpt sub exch vpt2 Square} bind def
/S0 {BL [] 0 setdash 2 copy moveto 0 vpt rlineto BL Bsquare} bind def
/S1 {BL [] 0 setdash 2 copy vpt Square fill Bsquare} bind def
/S2 {BL [] 0 setdash 2 copy exch vpt sub exch vpt Square fill Bsquare} bind def
/S3 {BL [] 0 setdash 2 copy exch vpt sub exch vpt2 vpt Rec fill Bsquare} bind def
/S4 {BL [] 0 setdash 2 copy exch vpt sub exch vpt sub vpt Square fill Bsquare} bind def
/S5 {BL [] 0 setdash 2 copy 2 copy vpt Square fill
	exch vpt sub exch vpt sub vpt Square fill Bsquare} bind def
/S6 {BL [] 0 setdash 2 copy exch vpt sub exch vpt sub vpt vpt2 Rec fill Bsquare} bind def
/S7 {BL [] 0 setdash 2 copy exch vpt sub exch vpt sub vpt vpt2 Rec fill
	2 copy vpt Square fill Bsquare} bind def
/S8 {BL [] 0 setdash 2 copy vpt sub vpt Square fill Bsquare} bind def
/S9 {BL [] 0 setdash 2 copy vpt sub vpt vpt2 Rec fill Bsquare} bind def
/S10 {BL [] 0 setdash 2 copy vpt sub vpt Square fill 2 copy exch vpt sub exch vpt Square fill
	Bsquare} bind def
/S11 {BL [] 0 setdash 2 copy vpt sub vpt Square fill 2 copy exch vpt sub exch vpt2 vpt Rec fill
	Bsquare} bind def
/S12 {BL [] 0 setdash 2 copy exch vpt sub exch vpt sub vpt2 vpt Rec fill Bsquare} bind def
/S13 {BL [] 0 setdash 2 copy exch vpt sub exch vpt sub vpt2 vpt Rec fill
	2 copy vpt Square fill Bsquare} bind def
/S14 {BL [] 0 setdash 2 copy exch vpt sub exch vpt sub vpt2 vpt Rec fill
	2 copy exch vpt sub exch vpt Square fill Bsquare} bind def
/S15 {BL [] 0 setdash 2 copy Bsquare fill Bsquare} bind def
/D0 {gsave translate 45 rotate 0 0 S0 stroke grestore} bind def
/D1 {gsave translate 45 rotate 0 0 S1 stroke grestore} bind def
/D2 {gsave translate 45 rotate 0 0 S2 stroke grestore} bind def
/D3 {gsave translate 45 rotate 0 0 S3 stroke grestore} bind def
/D4 {gsave translate 45 rotate 0 0 S4 stroke grestore} bind def
/D5 {gsave translate 45 rotate 0 0 S5 stroke grestore} bind def
/D6 {gsave translate 45 rotate 0 0 S6 stroke grestore} bind def
/D7 {gsave translate 45 rotate 0 0 S7 stroke grestore} bind def
/D8 {gsave translate 45 rotate 0 0 S8 stroke grestore} bind def
/D9 {gsave translate 45 rotate 0 0 S9 stroke grestore} bind def
/D10 {gsave translate 45 rotate 0 0 S10 stroke grestore} bind def
/D11 {gsave translate 45 rotate 0 0 S11 stroke grestore} bind def
/D12 {gsave translate 45 rotate 0 0 S12 stroke grestore} bind def
/D13 {gsave translate 45 rotate 0 0 S13 stroke grestore} bind def
/D14 {gsave translate 45 rotate 0 0 S14 stroke grestore} bind def
/D15 {gsave translate 45 rotate 0 0 S15 stroke grestore} bind def
/DiaE {stroke [] 0 setdash vpt add M
  hpt neg vpt neg V hpt vpt neg V
  hpt vpt V hpt neg vpt V closepath stroke} def
/BoxE {stroke [] 0 setdash exch hpt sub exch vpt add M
  0 vpt2 neg V hpt2 0 V 0 vpt2 V
  hpt2 neg 0 V closepath stroke} def
/TriUE {stroke [] 0 setdash vpt 1.12 mul add M
  hpt neg vpt -1.62 mul V
  hpt 2 mul 0 V
  hpt neg vpt 1.62 mul V closepath stroke} def
/TriDE {stroke [] 0 setdash vpt 1.12 mul sub M
  hpt neg vpt 1.62 mul V
  hpt 2 mul 0 V
  hpt neg vpt -1.62 mul V closepath stroke} def
/PentE {stroke [] 0 setdash gsave
  translate 0 hpt M 4 {72 rotate 0 hpt L} repeat
  closepath stroke grestore} def
/CircE {stroke [] 0 setdash 
  hpt 0 360 arc stroke} def
/Opaque {gsave closepath 1 setgray fill grestore 0 setgray closepath} def
/DiaW {stroke [] 0 setdash vpt add M
  hpt neg vpt neg V hpt vpt neg V
  hpt vpt V hpt neg vpt V Opaque stroke} def
/BoxW {stroke [] 0 setdash exch hpt sub exch vpt add M
  0 vpt2 neg V hpt2 0 V 0 vpt2 V
  hpt2 neg 0 V Opaque stroke} def
/TriUW {stroke [] 0 setdash vpt 1.12 mul add M
  hpt neg vpt -1.62 mul V
  hpt 2 mul 0 V
  hpt neg vpt 1.62 mul V Opaque stroke} def
/TriDW {stroke [] 0 setdash vpt 1.12 mul sub M
  hpt neg vpt 1.62 mul V
  hpt 2 mul 0 V
  hpt neg vpt -1.62 mul V Opaque stroke} def
/PentW {stroke [] 0 setdash gsave
  translate 0 hpt M 4 {72 rotate 0 hpt L} repeat
  Opaque stroke grestore} def
/CircW {stroke [] 0 setdash 
  hpt 0 360 arc Opaque stroke} def
/BoxFill {gsave Rec 1 setgray fill grestore} def
/Density {
  /Fillden exch def
  currentrgbcolor
  /ColB exch def /ColG exch def /ColR exch def
  /ColR ColR Fillden mul Fillden sub 1 add def
  /ColG ColG Fillden mul Fillden sub 1 add def
  /ColB ColB Fillden mul Fillden sub 1 add def
  ColR ColG ColB setrgbcolor} def
/BoxColFill {gsave Rec PolyFill} def
/PolyFill {gsave Density fill grestore grestore} def
/h {rlineto rlineto rlineto gsave closepath fill grestore} bind def
%
% PostScript Level 1 Pattern Fill routine for rectangles
% Usage: x y w h s a XX PatternFill
%	x,y = lower left corner of box to be filled
%	w,h = width and height of box
%	  a = angle in degrees between lines and x-axis
%	 XX = 0/1 for no/yes cross-hatch
%
/PatternFill {gsave /PFa [ 9 2 roll ] def
  PFa 0 get PFa 2 get 2 div add PFa 1 get PFa 3 get 2 div add translate
  PFa 2 get -2 div PFa 3 get -2 div PFa 2 get PFa 3 get Rec
  TransparentPatterns {} {gsave 1 setgray fill grestore} ifelse
  clip
  currentlinewidth 0.5 mul setlinewidth
  /PFs PFa 2 get dup mul PFa 3 get dup mul add sqrt def
  0 0 M PFa 5 get rotate PFs -2 div dup translate
  0 1 PFs PFa 4 get div 1 add floor cvi
	{PFa 4 get mul 0 M 0 PFs V} for
  0 PFa 6 get ne {
	0 1 PFs PFa 4 get div 1 add floor cvi
	{PFa 4 get mul 0 2 1 roll M PFs 0 V} for
 } if
  stroke grestore} def
%
/languagelevel where
 {pop languagelevel} {1} ifelse
dup 2 lt
	{/InterpretLevel1 true def
	 /InterpretLevel3 false def}
	{/InterpretLevel1 Level1 def
	 2 gt
	    {/InterpretLevel3 Level3 def}
	    {/InterpretLevel3 false def}
	 ifelse }
 ifelse
%
% PostScript level 2 pattern fill definitions
%
/Level2PatternFill {
/Tile8x8 {/PaintType 2 /PatternType 1 /TilingType 1 /BBox [0 0 8 8] /XStep 8 /YStep 8}
	bind def
/KeepColor {currentrgbcolor [/Pattern /DeviceRGB] setcolorspace} bind def
<< Tile8x8
 /PaintProc {0.5 setlinewidth pop 0 0 M 8 8 L 0 8 M 8 0 L stroke} 
>> matrix makepattern
/Pat1 exch def
<< Tile8x8
 /PaintProc {0.5 setlinewidth pop 0 0 M 8 8 L 0 8 M 8 0 L stroke
	0 4 M 4 8 L 8 4 L 4 0 L 0 4 L stroke}
>> matrix makepattern
/Pat2 exch def
<< Tile8x8
 /PaintProc {0.5 setlinewidth pop 0 0 M 0 8 L
	8 8 L 8 0 L 0 0 L fill}
>> matrix makepattern
/Pat3 exch def
<< Tile8x8
 /PaintProc {0.5 setlinewidth pop -4 8 M 8 -4 L
	0 12 M 12 0 L stroke}
>> matrix makepattern
/Pat4 exch def
<< Tile8x8
 /PaintProc {0.5 setlinewidth pop -4 0 M 8 12 L
	0 -4 M 12 8 L stroke}
>> matrix makepattern
/Pat5 exch def
<< Tile8x8
 /PaintProc {0.5 setlinewidth pop -2 8 M 4 -4 L
	0 12 M 8 -4 L 4 12 M 10 0 L stroke}
>> matrix makepattern
/Pat6 exch def
<< Tile8x8
 /PaintProc {0.5 setlinewidth pop -2 0 M 4 12 L
	0 -4 M 8 12 L 4 -4 M 10 8 L stroke}
>> matrix makepattern
/Pat7 exch def
<< Tile8x8
 /PaintProc {0.5 setlinewidth pop 8 -2 M -4 4 L
	12 0 M -4 8 L 12 4 M 0 10 L stroke}
>> matrix makepattern
/Pat8 exch def
<< Tile8x8
 /PaintProc {0.5 setlinewidth pop 0 -2 M 12 4 L
	-4 0 M 12 8 L -4 4 M 8 10 L stroke}
>> matrix makepattern
/Pat9 exch def
/Pattern1 {PatternBgnd KeepColor Pat1 setpattern} bind def
/Pattern2 {PatternBgnd KeepColor Pat2 setpattern} bind def
/Pattern3 {PatternBgnd KeepColor Pat3 setpattern} bind def
/Pattern4 {PatternBgnd KeepColor Landscape {Pat5} {Pat4} ifelse setpattern} bind def
/Pattern5 {PatternBgnd KeepColor Landscape {Pat4} {Pat5} ifelse setpattern} bind def
/Pattern6 {PatternBgnd KeepColor Landscape {Pat9} {Pat6} ifelse setpattern} bind def
/Pattern7 {PatternBgnd KeepColor Landscape {Pat8} {Pat7} ifelse setpattern} bind def
} def
%
%
%End of PostScript Level 2 code
%
/PatternBgnd {
  TransparentPatterns {} {gsave 1 setgray fill grestore} ifelse
} def
%
% Substitute for Level 2 pattern fill codes with
% grayscale if Level 2 support is not selected.
%
/Level1PatternFill {
/Pattern1 {0.250 Density} bind def
/Pattern2 {0.500 Density} bind def
/Pattern3 {0.750 Density} bind def
/Pattern4 {0.125 Density} bind def
/Pattern5 {0.375 Density} bind def
/Pattern6 {0.625 Density} bind def
/Pattern7 {0.875 Density} bind def
} def
%
% Now test for support of Level 2 code
%
Level1 {Level1PatternFill} {Level2PatternFill} ifelse
%
/Symbol-Oblique /Symbol findfont [1 0 .167 1 0 0] makefont
dup length dict begin {1 index /FID eq {pop pop} {def} ifelse} forall
currentdict end definefont pop
%
/Metrics {ExtendTextBox Gswidth} def
/Lwidth {currentpoint stroke M 0 vshift R Metrics} def
/Rwidth {currentpoint stroke M dup stringwidth pop neg vshift R Metrics} def
/Cwidth {currentpoint stroke M dup stringwidth pop -2 div vshift R Metrics} def
/GLwidth {currentpoint stroke M 0 vshift R {ExtendTextBox} forall} def
/GRwidth {currentpoint stroke M dup Gwidth vshift R {ExtendTextBox} forall} def
/GCwidth {currentpoint stroke M dup Gwidth 2 div vshift R {ExtendTextBox} forall} def
/GLwidth2 {0 Gwidth AddGlyphWidth} def
/GRwidth2 {Gwidth -1 mul 0 AddGlyphWidth} def
/GCwidth2 {Gwidth 2 div dup -1 mul AddGlyphWidth} def
/AddGlyphWidth { dup TBx2 gt {userdict /TBx2 3 -1 roll put} {pop} ifelse
                 dup TBx1 lt {userdict /TBx1 3 -1 roll put} {pop} ifelse } def
/MFshow {
   { dup 5 get 3 ge
     { 5 get 3 eq {gsave} {grestore} ifelse }
     {dup dup 0 get findfont exch 1 get scalefont setfont
     [ currentpoint ] exch dup 2 get 0 exch R dup 5 get 2 ne {dup dup 6
     get exch 4 get {textshow} {Metrics pop 0 R} ifelse }if dup 5 get 0 eq
     {dup 3 get {2 get neg 0 exch R pop} {pop aload pop M} ifelse} {dup 5
     get 1 eq {dup 2 get exch dup 3 get exch 6 get Gswidth pop -2 div
     dup 0 R} {dup 6 get Gswidth pop -2 div 0 R 6 get
     textshow 2 index {aload pop M neg 3 -1 roll neg R pop pop} {pop pop pop
     pop aload pop M} ifelse }ifelse }ifelse }
     ifelse }
   forall} def
/Gswidth {dup type /stringtype eq {stringwidth} {pop (n) stringwidth} ifelse} def
/MFwidth {0 exch { dup 5 get 3 ge { 5 get 3 eq { 0 } { pop } ifelse }
 {dup 3 get{dup dup 0 get findfont exch 1 get scalefont setfont
     6 get Gswidth pop add} {pop} ifelse} ifelse} forall} def
/MLshow { currentpoint stroke M
  0 exch R
  Blacktext {gsave 0 setgray MFshow grestore} {MFshow} ifelse } bind def
/MRshow { currentpoint stroke M
  exch dup MFwidth neg 3 -1 roll R
  Blacktext {gsave 0 setgray MFshow grestore} {MFshow} ifelse } bind def
/MCshow { currentpoint stroke M
  exch dup MFwidth -2 div 3 -1 roll R
  Blacktext {gsave 0 setgray MFshow grestore} {MFshow} ifelse } bind def
/XYsave    { [( ) 1 2 true false 3 ()] } bind def
/XYrestore { [( ) 1 2 true false 4 ()] } bind def
Level1 SuppressPDFMark or 
{} {
/SDict 10 dict def
systemdict /pdfmark known not {
  userdict /pdfmark systemdict /cleartomark get put
} if
SDict begin [
  /Title (ITM.eps)
  /Subject (gnuplot plot)
  /Creator (gnuplot 5.2 patchlevel 2)
%  /Producer (gnuplot)
%  /Keywords ()
  /CreationDate (Sat May 18 19:42:02 2019)
  /DOCINFO pdfmark
end
} ifelse
%
% Support for boxed text - Ethan A Merritt Sep 2016
%
/InitTextBox { userdict /TBy2 3 -1 roll put userdict /TBx2 3 -1 roll put
           userdict /TBy1 3 -1 roll put userdict /TBx1 3 -1 roll put
	   /Boxing true def } def
/ExtendTextBox { dup type /stringtype eq
    { Boxing { gsave dup false charpath pathbbox
      dup TBy2 gt {userdict /TBy2 3 -1 roll put} {pop} ifelse
      dup TBx2 gt {userdict /TBx2 3 -1 roll put} {pop} ifelse
      dup TBy1 lt {userdict /TBy1 3 -1 roll put} {pop} ifelse
      dup TBx1 lt {userdict /TBx1 3 -1 roll put} {pop} ifelse
      grestore } if }
    {} ifelse} def
/PopTextBox { newpath TBx1 TBxmargin sub TBy1 TBymargin sub M
               TBx1 TBxmargin sub TBy2 TBymargin add L
	       TBx2 TBxmargin add TBy2 TBymargin add L
	       TBx2 TBxmargin add TBy1 TBymargin sub L closepath } def
/DrawTextBox { PopTextBox stroke /Boxing false def} def
/FillTextBox { gsave PopTextBox fill grestore /Boxing false def} def
0 0 0 0 InitTextBox
/TBxmargin 20 def
/TBymargin 20 def
/Boxing false def
/textshow { ExtendTextBox Gshow } def
%
end
%%EndProlog
%%Page: 1 1
gnudict begin
gsave
doclip
50 50 translate
0.050 0.050 scale
0 setgray
newpath
(Helvetica) findfont 140 scalefont setfont
BackgroundColor 0 lt 3 1 roll 0 lt exch 0 lt or or not {BackgroundColor C 1.000 0 0 7200.00 5040.00 BoxColFill} if
/Helvetica findfont 140 scalefont setfont
/vshift -46 def
/Helvetica findfont 140 scalefont setfont
1.000 UL
LTb
LCb setrgbcolor
546 280 M
63 0 V
6338 0 R
-63 0 V
stroke
462 280 M
[ [(Helvetica) 140.0 0.0 true true 0 ( 0)]
] -46.7 MRshow
1.000 UL
LTb
LCb setrgbcolor
546 714 M
63 0 V
6338 0 R
-63 0 V
stroke
462 714 M
[ [(Helvetica) 140.0 0.0 true true 0 ( 0.1)]
] -46.7 MRshow
1.000 UL
LTb
LCb setrgbcolor
546 1148 M
63 0 V
6338 0 R
-63 0 V
stroke
462 1148 M
[ [(Helvetica) 140.0 0.0 true true 0 ( 0.2)]
] -46.7 MRshow
1.000 UL
LTb
LCb setrgbcolor
546 1582 M
63 0 V
6338 0 R
-63 0 V
stroke
462 1582 M
[ [(Helvetica) 140.0 0.0 true true 0 ( 0.3)]
] -46.7 MRshow
1.000 UL
LTb
LCb setrgbcolor
546 2016 M
63 0 V
6338 0 R
-63 0 V
stroke
462 2016 M
[ [(Helvetica) 140.0 0.0 true true 0 ( 0.4)]
] -46.7 MRshow
1.000 UL
LTb
LCb setrgbcolor
546 2450 M
63 0 V
6338 0 R
-63 0 V
stroke
462 2450 M
[ [(Helvetica) 140.0 0.0 true true 0 ( 0.5)]
] -46.7 MRshow
1.000 UL
LTb
LCb setrgbcolor
546 2883 M
63 0 V
6338 0 R
-63 0 V
stroke
462 2883 M
[ [(Helvetica) 140.0 0.0 true true 0 ( 0.6)]
] -46.7 MRshow
1.000 UL
LTb
LCb setrgbcolor
546 3317 M
63 0 V
6338 0 R
-63 0 V
stroke
462 3317 M
[ [(Helvetica) 140.0 0.0 true true 0 ( 0.7)]
] -46.7 MRshow
1.000 UL
LTb
LCb setrgbcolor
546 3751 M
63 0 V
6338 0 R
-63 0 V
stroke
462 3751 M
[ [(Helvetica) 140.0 0.0 true true 0 ( 0.8)]
] -46.7 MRshow
1.000 UL
LTb
LCb setrgbcolor
546 4185 M
63 0 V
6338 0 R
-63 0 V
stroke
462 4185 M
[ [(Helvetica) 140.0 0.0 true true 0 ( 0.9)]
] -46.7 MRshow
1.000 UL
LTb
LCb setrgbcolor
546 4619 M
63 0 V
6338 0 R
-63 0 V
stroke
462 4619 M
[ [(Helvetica) 140.0 0.0 true true 0 ( 1)]
] -46.7 MRshow
1.000 UL
LTb
LCb setrgbcolor
546 280 M
0 63 V
0 4276 R
0 -63 V
stroke
546 140 M
[ [(Helvetica) 140.0 0.0 true true 0 ( 0)]
] -46.7 MCshow
1.000 UL
LTb
LCb setrgbcolor
1613 280 M
0 63 V
0 4276 R
0 -63 V
stroke
1613 140 M
[ [(Helvetica) 140.0 0.0 true true 0 ( 0.05)]
] -46.7 MCshow
1.000 UL
LTb
LCb setrgbcolor
2680 280 M
0 63 V
0 4276 R
0 -63 V
stroke
2680 140 M
[ [(Helvetica) 140.0 0.0 true true 0 ( 0.1)]
] -46.7 MCshow
1.000 UL
LTb
LCb setrgbcolor
3747 280 M
0 63 V
0 4276 R
0 -63 V
stroke
3747 140 M
[ [(Helvetica) 140.0 0.0 true true 0 ( 0.15)]
] -46.7 MCshow
1.000 UL
LTb
LCb setrgbcolor
4813 280 M
0 63 V
0 4276 R
0 -63 V
stroke
4813 140 M
[ [(Helvetica) 140.0 0.0 true true 0 ( 0.2)]
] -46.7 MCshow
1.000 UL
LTb
LCb setrgbcolor
5880 280 M
0 63 V
0 4276 R
0 -63 V
stroke
5880 140 M
[ [(Helvetica) 140.0 0.0 true true 0 ( 0.25)]
] -46.7 MCshow
1.000 UL
LTb
LCb setrgbcolor
6947 280 M
0 63 V
0 4276 R
0 -63 V
stroke
6947 140 M
[ [(Helvetica) 140.0 0.0 true true 0 ( 0.3)]
] -46.7 MCshow
1.000 UL
LTb
LCb setrgbcolor
1.000 UL
LTB
LCb setrgbcolor
546 4619 N
546 280 L
6401 0 V
0 4339 V
-6401 0 V
Z stroke
1.000 UP
1.000 UL
LTb
LCb setrgbcolor
LCb setrgbcolor
3746 4829 M
[ [(Helvetica) 140.0 0.0 true true 0 (Indirect Trapezium Method)]
] -46.7 MCshow
% Begin plot #1
1.000 UL
LTb
1.00 0.00 0.00 C /Helvetica findfont 140 scalefont setfont
LCb setrgbcolor
6296 4486 M
('AnaliticData.dat' u 1:2) Rshow
1.000 UL
LTb
1.00 0.00 0.00 C 6380 4486 M
399 0 V
546 280 M
21 86 V
22 84 V
21 83 V
21 81 V
22 79 V
21 78 V
21 76 V
22 75 V
21 73 V
21 72 V
22 70 V
21 69 V
21 67 V
22 67 V
21 65 V
21 63 V
22 63 V
21 61 V
21 60 V
22 58 V
21 58 V
21 56 V
22 56 V
21 54 V
21 53 V
22 52 V
21 51 V
21 50 V
22 49 V
21 48 V
21 48 V
22 46 V
21 45 V
21 45 V
22 43 V
21 43 V
21 41 V
22 41 V
21 41 V
21 39 V
22 39 V
21 37 V
21 37 V
22 37 V
21 35 V
21 35 V
22 34 V
21 34 V
21 33 V
22 32 V
21 32 V
22 31 V
21 30 V
21 30 V
22 29 V
21 28 V
21 28 V
22 28 V
21 27 V
21 26 V
22 26 V
21 25 V
21 25 V
22 25 V
21 23 V
21 24 V
22 23 V
21 22 V
21 22 V
22 22 V
21 21 V
21 21 V
22 20 V
21 20 V
21 19 V
22 20 V
21 18 V
21 19 V
22 18 V
21 17 V
21 18 V
22 17 V
21 16 V
21 17 V
22 16 V
21 15 V
21 16 V
22 15 V
21 15 V
21 14 V
22 14 V
21 14 V
21 14 V
22 13 V
21 13 V
21 13 V
22 13 V
21 12 V
21 12 V
22 12 V
21 11 V
21 12 V
22 11 V
21 11 V
21 11 V
22 10 V
21 10 V
21 11 V
22 9 V
21 10 V
21 10 V
22 9 V
21 9 V
21 9 V
22 9 V
21 8 V
21 9 V
22 8 V
21 8 V
21 8 V
22 8 V
21 8 V
21 7 V
22 7 V
21 8 V
21 7 V
22 6 V
21 7 V
21 7 V
22 6 V
21 7 V
21 6 V
22 6 V
21 6 V
21 6 V
22 6 V
21 5 V
21 6 V
22 5 V
21 6 V
21 5 V
22 5 V
21 5 V
21 5 V
22 5 V
21 5 V
21 4 V
22 5 V
21 4 V
21 5 V
22 4 V
21 4 V
22 4 V
21 4 V
21 4 V
22 4 V
21 4 V
21 4 V
22 3 V
21 4 V
21 3 V
22 4 V
21 3 V
21 3 V
22 4 V
21 3 V
21 3 V
22 3 V
21 3 V
21 3 V
22 3 V
21 3 V
21 2 V
22 3 V
21 3 V
21 2 V
22 3 V
21 2 V
21 3 V
22 2 V
21 3 V
21 2 V
22 2 V
21 2 V
21 2 V
22 3 V
21 2 V
21 2 V
22 2 V
21 2 V
21 2 V
22 2 V
21 1 V
21 2 V
22 2 V
21 2 V
21 1 V
22 2 V
21 2 V
21 1 V
22 2 V
21 2 V
21 1 V
22 2 V
21 1 V
21 1 V
22 2 V
21 1 V
21 2 V
22 1 V
21 1 V
21 2 V
22 1 V
21 1 V
21 1 V
22 1 V
21 2 V
21 1 V
22 1 V
21 1 V
21 1 V
22 1 V
21 1 V
21 1 V
22 1 V
21 1 V
21 1 V
22 1 V
21 1 V
21 1 V
22 1 V
21 0 V
21 1 V
22 1 V
21 1 V
21 1 V
22 0 V
21 1 V
21 1 V
22 1 V
21 0 V
21 1 V
22 1 V
21 0 V
21 1 V
22 1 V
21 0 V
stroke 5816 4586 M
21 1 V
22 1 V
21 0 V
22 1 V
21 0 V
21 1 V
22 1 V
21 0 V
21 1 V
22 0 V
21 1 V
21 0 V
22 1 V
21 0 V
21 1 V
22 0 V
21 1 V
21 0 V
22 0 V
21 1 V
21 0 V
22 1 V
21 0 V
21 1 V
22 0 V
21 0 V
21 1 V
22 0 V
21 0 V
21 1 V
22 0 V
21 0 V
21 1 V
22 0 V
21 0 V
21 1 V
22 0 V
21 0 V
21 1 V
22 0 V
21 0 V
21 1 V
22 0 V
21 0 V
21 0 V
22 1 V
21 0 V
21 0 V
22 0 V
21 1 V
21 0 V
22 0 V
% End plot #1
% Begin plot #2
1.000 UP
stroke
LTb
0.00 1.00 0.00 C /Helvetica findfont 140 scalefont setfont
LCb setrgbcolor
6296 4346 M
('ITM.dat' u 1:2) Rshow
1.000 UP
1.000 UL
LTb
0.00 1.00 0.00 C 546 366 Circle
567 450 Circle
589 533 Circle
610 614 Circle
631 693 Circle
653 771 Circle
674 847 Circle
695 922 Circle
717 995 Circle
738 1067 Circle
759 1137 Circle
781 1206 Circle
802 1273 Circle
823 1340 Circle
845 1405 Circle
866 1468 Circle
887 1531 Circle
909 1592 Circle
930 1652 Circle
951 1710 Circle
973 1768 Circle
994 1824 Circle
1015 1880 Circle
1037 1934 Circle
1058 1987 Circle
1079 2039 Circle
1101 2090 Circle
1122 2140 Circle
1143 2189 Circle
1165 2238 Circle
1186 2285 Circle
1207 2331 Circle
1229 2376 Circle
1250 2421 Circle
1271 2464 Circle
1293 2507 Circle
1314 2549 Circle
1335 2589 Circle
1357 2630 Circle
1378 2669 Circle
1399 2708 Circle
1421 2745 Circle
1442 2782 Circle
1463 2819 Circle
1485 2854 Circle
1506 2889 Circle
1527 2924 Circle
1549 2957 Circle
1570 2990 Circle
1591 3022 Circle
1613 3054 Circle
1634 3085 Circle
1656 3115 Circle
1677 3145 Circle
1698 3174 Circle
1720 3202 Circle
1741 3231 Circle
1762 3258 Circle
1784 3285 Circle
1805 3311 Circle
1826 3337 Circle
1848 3362 Circle
1869 3387 Circle
1890 3412 Circle
1912 3435 Circle
1933 3459 Circle
1954 3482 Circle
1976 3504 Circle
1997 3526 Circle
2018 3548 Circle
2040 3569 Circle
2061 3590 Circle
2082 3610 Circle
2104 3630 Circle
2125 3650 Circle
2146 3669 Circle
2168 3687 Circle
2189 3706 Circle
2210 3724 Circle
2232 3742 Circle
2253 3759 Circle
2274 3776 Circle
2296 3792 Circle
2317 3809 Circle
2338 3825 Circle
2360 3840 Circle
2381 3856 Circle
2402 3871 Circle
2424 3886 Circle
2445 3900 Circle
2466 3914 Circle
2488 3928 Circle
2509 3942 Circle
2530 3955 Circle
2552 3968 Circle
2573 3981 Circle
2594 3994 Circle
2616 4006 Circle
2637 4018 Circle
2658 4030 Circle
2680 4041 Circle
2701 4053 Circle
2722 4064 Circle
2744 4075 Circle
2765 4086 Circle
2786 4096 Circle
2808 4106 Circle
2829 4117 Circle
2850 4126 Circle
2872 4136 Circle
2893 4146 Circle
2914 4155 Circle
2936 4164 Circle
2957 4173 Circle
2978 4182 Circle
3000 4190 Circle
3021 4199 Circle
3042 4207 Circle
3064 4215 Circle
3085 4223 Circle
3106 4231 Circle
3128 4239 Circle
3149 4246 Circle
3170 4253 Circle
3192 4261 Circle
3213 4268 Circle
3234 4275 Circle
3256 4281 Circle
3277 4288 Circle
3298 4294 Circle
3320 4301 Circle
3341 4307 Circle
3362 4313 Circle
3384 4319 Circle
3405 4325 Circle
3426 4331 Circle
3448 4336 Circle
3469 4342 Circle
3490 4347 Circle
3512 4353 Circle
3533 4358 Circle
3554 4363 Circle
3576 4368 Circle
3597 4373 Circle
3618 4378 Circle
3640 4383 Circle
3661 4387 Circle
3682 4392 Circle
3704 4396 Circle
3725 4401 Circle
3746 4405 Circle
3768 4409 Circle
3789 4413 Circle
3811 4417 Circle
3832 4421 Circle
3853 4425 Circle
3875 4429 Circle
3896 4433 Circle
3917 4436 Circle
3939 4440 Circle
3960 4443 Circle
3981 4447 Circle
4003 4450 Circle
4024 4453 Circle
4045 4457 Circle
4067 4460 Circle
4088 4463 Circle
4109 4466 Circle
4131 4469 Circle
4152 4472 Circle
4173 4475 Circle
4195 4478 Circle
4216 4480 Circle
4237 4483 Circle
4259 4486 Circle
4280 4488 Circle
4301 4491 Circle
4323 4493 Circle
4344 4496 Circle
4365 4498 Circle
4387 4501 Circle
4408 4503 Circle
4429 4505 Circle
4451 4507 Circle
4472 4509 Circle
4493 4512 Circle
4515 4514 Circle
4536 4516 Circle
4557 4518 Circle
4579 4520 Circle
4600 4522 Circle
4621 4524 Circle
4643 4525 Circle
4664 4527 Circle
4685 4529 Circle
4707 4531 Circle
4728 4532 Circle
4749 4534 Circle
4771 4536 Circle
4792 4537 Circle
4813 4539 Circle
4835 4541 Circle
4856 4542 Circle
4877 4544 Circle
4899 4545 Circle
4920 4546 Circle
4941 4548 Circle
4963 4549 Circle
4984 4551 Circle
5005 4552 Circle
5027 4553 Circle
5048 4555 Circle
5069 4556 Circle
5091 4557 Circle
5112 4558 Circle
5133 4559 Circle
5155 4561 Circle
5176 4562 Circle
5197 4563 Circle
5219 4564 Circle
5240 4565 Circle
5261 4566 Circle
5283 4567 Circle
5304 4568 Circle
5325 4569 Circle
5347 4570 Circle
5368 4571 Circle
5389 4572 Circle
5411 4573 Circle
5432 4574 Circle
5453 4575 Circle
5475 4575 Circle
5496 4576 Circle
5517 4577 Circle
5539 4578 Circle
5560 4579 Circle
5581 4579 Circle
5603 4580 Circle
5624 4581 Circle
5645 4582 Circle
5667 4582 Circle
5688 4583 Circle
5709 4584 Circle
5731 4584 Circle
5752 4585 Circle
5773 4586 Circle
5795 4586 Circle
5816 4587 Circle
5837 4588 Circle
5859 4588 Circle
5880 4589 Circle
5902 4589 Circle
5923 4590 Circle
5944 4591 Circle
5966 4591 Circle
5987 4592 Circle
6008 4592 Circle
6030 4593 Circle
6051 4593 Circle
6072 4594 Circle
6094 4594 Circle
6115 4595 Circle
6136 4595 Circle
6158 4596 Circle
6179 4596 Circle
6200 4596 Circle
6222 4597 Circle
6243 4597 Circle
6264 4598 Circle
6286 4598 Circle
6307 4599 Circle
6328 4599 Circle
6350 4599 Circle
6371 4600 Circle
6392 4600 Circle
6414 4600 Circle
6435 4601 Circle
6456 4601 Circle
6478 4601 Circle
6499 4602 Circle
6520 4602 Circle
6542 4602 Circle
6563 4603 Circle
6584 4603 Circle
6606 4603 Circle
6627 4604 Circle
6648 4604 Circle
6670 4604 Circle
6691 4605 Circle
6712 4605 Circle
6734 4605 Circle
6755 4605 Circle
6776 4606 Circle
6798 4606 Circle
6819 4606 Circle
6840 4606 Circle
6862 4607 Circle
6883 4607 Circle
6904 4607 Circle
6926 4607 Circle
6579 4346 Circle
% End plot #2
2.000 UL
LTb
LCb setrgbcolor
1.000 UL
LTB
LCb setrgbcolor
546 4619 N
546 280 L
6401 0 V
0 4339 V
-6401 0 V
Z stroke
1.000 UP
1.000 UL
LTb
LCb setrgbcolor
stroke
grestore
end
showpage
%%Trailer
%%DocumentFonts: Helvetica
